%YAML 1.1
%TAG !u! tag:unity3d.com,2011:
--- !u!1045 &1
EditorBuildSettings:
  m_ObjectHideFlags: 0
  serializedVersion: 2
  m_Scenes:
  - enabled: 1
    path: Assets/Scenes/Level Tutorial.unity
    guid: 3d7b29d44ec3ca9448471d7a946d4670
  - enabled: 1
    path: Assets/Scenes/Level BigRoom.unity
    guid: 25006d8f17ce42a4ea4fd0e15c39e3b7
  - enabled: 1
    path: Assets/Scenes/WinScene.unity
    guid: 8c58f6da2dea21d48bccc2c091c74d50
  m_configObjects: {}
